<svg xmlns="http://www.w3.org/2000/svg" width="75.557" height="110" viewBox="0 0 75.557 110">
  <path id="Trazado_7734" data-name="Trazado 7734" d="M148.071,61.221,138,57.337l-5.145-5.145a1.607,1.607,0,0,0-1.25-.467V47.335a18.748,18.748,0,0,0,4.836-9.524.215.215,0,0,1,.1-.1,5.033,5.033,0,0,0,1.354-.092,5.217,5.217,0,0,0,4.044-5.178V31.1a5.285,5.285,0,0,0-1.647-3.844c1.656-8.84.345-16.035-3.808-20.83-3.991-4.608-10.435-6.81-18.633-6.367a24.357,24.357,0,0,0-14.071,5.218c-2.051.256-8.12,1.728-8.12,10.169a45.612,45.612,0,0,0,1.325,10.863,5.21,5.21,0,0,0-3.047,4.812v1.322a5.218,5.218,0,0,0,4.044,5.178,5.016,5.016,0,0,0,1.354.092.216.216,0,0,1,.1.1,18.752,18.752,0,0,0,4.837,9.525v4.389a1.608,1.608,0,0,0-1.25.467l-5.145,5.145L87.808,61.221a11.941,11.941,0,0,0-7.637,11.622L81.6,108.453A1.611,1.611,0,0,0,83.207,110h.066a1.611,1.611,0,0,0,1.546-1.674L83.392,72.715A8.709,8.709,0,0,1,83.8,69.7l5.86,5.86a8.665,8.665,0,0,1,2.555,6.167v26.666a1.611,1.611,0,1,0,3.223,0V81.722a11.867,11.867,0,0,0-3.5-8.446L85.425,66.76a8.707,8.707,0,0,1,3.543-2.531l9.475-3.654L105.658,71.4a5.037,5.037,0,0,0,3.709,2.227q.253.025.5.025a5.03,5.03,0,0,0,2.842-.878l-1.548,35.549A1.611,1.611,0,0,0,112.7,110l.071,0a1.611,1.611,0,0,0,1.609-1.541l1.43-32.849h4.254l1.43,32.849A1.611,1.611,0,0,0,123.106,110l.071,0a1.612,1.612,0,0,0,1.54-1.68l-1.548-35.549a5.027,5.027,0,0,0,2.841.878c.167,0,.335-.008.5-.025a5.038,5.038,0,0,0,3.709-2.227l7.215-10.822,9.475,3.654a8.709,8.709,0,0,1,3.543,2.531l-6.517,6.517a11.867,11.867,0,0,0-3.5,8.446v26.666a1.611,1.611,0,0,0,3.223,0V81.722a8.665,8.665,0,0,1,2.555-6.167l5.86-5.86a8.709,8.709,0,0,1,.411,3.019l-1.426,35.609A1.611,1.611,0,0,0,152.608,110h.066a1.611,1.611,0,0,0,1.609-1.547l1.426-35.609A11.945,11.945,0,0,0,148.071,61.221Zm-30.132,2.025L107.5,54.107V50.052a18.8,18.8,0,0,0,20.888,0v4.055ZM99.121,34.493a1.8,1.8,0,0,1-.491-.033,2.016,2.016,0,0,1-1.467-2.021V31.117a1.953,1.953,0,0,1,1.489-1.977,1.827,1.827,0,0,1,1.8.689,2.337,2.337,0,0,0,3.214.507,13.216,13.216,0,0,0,3.551-3.751,1.611,1.611,0,0,0-2.722-1.725,10.117,10.117,0,0,1-2.069,2.368,5.039,5.039,0,0,0-2.17-1.179,42.26,42.26,0,0,1-1.367-10.607c0-6.723,5.005-6.991,5.564-7a1.611,1.611,0,0,0,1.117-.45,20.708,20.708,0,0,1,12.461-4.719c7.167-.387,12.708,1.431,16.023,5.259,3.375,3.9,4.476,9.887,3.211,17.375a7.65,7.65,0,0,0-1.9.128l-1.8-4.323a1.613,1.613,0,0,0-1.9-.939c-.172.045-17.313,4.393-24.535-4.6a1.611,1.611,0,1,0-2.512,2.018c7.3,9.085,21.917,6.949,26.49,6.011l1.41,3.385a2.8,2.8,0,0,0,3.232,1.658,4.177,4.177,0,0,1,1.475-.1,1.969,1.969,0,0,1,1.49,1.953v1.342a2.016,2.016,0,0,1-1.467,2.021,1.8,1.8,0,0,1-.491.033,3.355,3.355,0,0,0-3.485,2.734,15.591,15.591,0,0,1-30.668,0A3.351,3.351,0,0,0,99.121,34.493Zm10.563,35.922a1.827,1.827,0,0,1-1.345-.807l-7.27-10.9,3.167-3.167,11.347,9.929-4.422,4.422A1.825,1.825,0,0,1,109.683,70.416Zm6.27,1.971.124-2.859,1.862-1.862,1.862,1.862.124,2.859Zm11.588-2.778a1.833,1.833,0,0,1-2.822.279L120.3,65.465l11.347-9.929L134.81,58.7Z" transform="translate(-80.162 0)" fill="#303059"/>
</svg>
